{
  "project_info": {
    "project_number": "925850870185",
    "firebase_url": "https://techathalon-apps-firebase.firebaseio.com",
    "project_id": "techathalon-apps-firebase",
    "storage_bucket": "techathalon-apps-firebase.appspot.com"
  },
  "client": [
    {
      "client_info": {
        "mobilesdk_app_id": "1:925850870185:android:9dbb9dea5b2cd216a924b8",
        "android_client_info": {
          "package_name": "com.client.kushthakkar.housienumberpicker"
        }
      },
      "oauth_client": [
        {
          "client_id": "925850870185-et06nlaeecpl66hui3sk1vvg80ocu3ao.apps.googleusercontent.com",
          "client_type": 3
        }
      ],
      "api_key": [
        {
          "current_key": "AIzaSyBzYxV_5OGg1YDoUISbyiU3TVuMvBiKGP0"
        }
      ],
      "services": {
        "appinvite_service": {
          "other_platform_oauth_client": [
            {
              "client_id": "925850870185-4al1vch4aln9ca31t9533gkus8d3nio1.apps.googleusercontent.com",
              "client_type": 3
            },
            {
              "client_id": "925850870185-0171qd9t9lhbl9vjjo9bpn93k99qakj6.apps.googleusercontent.com",
              "client_type": 2,
              "ios_info": {
                "bundle_id": "com.techathalon.BallsHit"
              }
            }
          ]
        }
      }
    },
    {
      "client_info": {
        "mobilesdk_app_id": "1:925850870185:android:f6c2f6bc613eb342a924b8",
        "android_client_info": {
          "package_name": "com.client.levelsapp"
        }
      },
      "oauth_client": [
        {
          "client_id": "925850870185-t60qa82634qjaankab1ktredtd037agv.apps.googleusercontent.com",
          "client_type": 1,
          "android_info": {
            "package_name": "com.client.levelsapp",
            "certificate_hash": "8cb09946fff6e34b4132ea116c6dfdcda9b199c3"
          }
        },
        {
          "client_id": "925850870185-et06nlaeecpl66hui3sk1vvg80ocu3ao.apps.googleusercontent.com",
          "client_type": 3
        }
      ],
      "api_key": [
        {
          "current_key": "AIzaSyBzYxV_5OGg1YDoUISbyiU3TVuMvBiKGP0"
        }
      ],
      "services": {
        "appinvite_service": {
          "other_platform_oauth_client": [
            {
              "client_id": "925850870185-4al1vch4aln9ca31t9533gkus8d3nio1.apps.googleusercontent.com",
              "client_type": 3
            },
            {
              "client_id": "925850870185-0171qd9t9lhbl9vjjo9bpn93k99qakj6.apps.googleusercontent.com",
              "client_type": 2,
              "ios_info": {
                "bundle_id": "com.techathalon.BallsHit"
              }
            }
          ]
        }
      }
    },
    {
      "client_info": {
        "mobilesdk_app_id": "1:925850870185:android:3caf6b7ad0f824daa924b8",
        "android_client_info": {
          "package_name": "com.client.pedometer"
        }
      },
      "oauth_client": [
        {
          "client_id": "925850870185-et06nlaeecpl66hui3sk1vvg80ocu3ao.apps.googleusercontent.com",
          "client_type": 3
        }
      ],
      "api_key": [
        {
          "current_key": "AIzaSyBzYxV_5OGg1YDoUISbyiU3TVuMvBiKGP0"
        }
      ],
      "services": {
        "appinvite_service": {
          "other_platform_oauth_client": [
            {
              "client_id": "925850870185-4al1vch4aln9ca31t9533gkus8d3nio1.apps.googleusercontent.com",
              "client_type": 3
            },
            {
              "client_id": "925850870185-0171qd9t9lhbl9vjjo9bpn93k99qakj6.apps.googleusercontent.com",
              "client_type": 2,
              "ios_info": {
                "bundle_id": "com.techathalon.BallsHit"
              }
            }
          ]
        }
      }
    },
    {
      "client_info": {
        "mobilesdk_app_id": "1:925850870185:android:27e8847905424d4da924b8",
        "android_client_info": {
          "package_name": "com.client.remindme"
        }
      },
      "oauth_client": [
        {
          "client_id": "925850870185-et06nlaeecpl66hui3sk1vvg80ocu3ao.apps.googleusercontent.com",
          "client_type": 3
        }
      ],
      "api_key": [
        {
          "current_key": "AIzaSyBzYxV_5OGg1YDoUISbyiU3TVuMvBiKGP0"
        }
      ],
      "services": {
        "appinvite_service": {
          "other_platform_oauth_client": [
            {
              "client_id": "925850870185-4al1vch4aln9ca31t9533gkus8d3nio1.apps.googleusercontent.com",
              "client_type": 3
            },
            {
              "client_id": "925850870185-0171qd9t9lhbl9vjjo9bpn93k99qakj6.apps.googleusercontent.com",
              "client_type": 2,
              "ios_info": {
                "bundle_id": "com.techathalon.BallsHit"
              }
            }
          ]
        }
      }
    },
    {
      "client_info": {
        "mobilesdk_app_id": "1:925850870185:android:cbff906bddf18968a924b8",
        "android_client_info": {
          "package_name": "com.client.watertracker"
        }
      },
      "oauth_client": [
        {
          "client_id": "925850870185-erqvoofofsk6r2lu2jm05q3nqtnkeq11.apps.googleusercontent.com",
          "client_type": 1,
          "android_info": {
            "package_name": "com.client.watertracker",
            "certificate_hash": "8cb09946fff6e34b4132ea116c6dfdcda9b199c3"
          }
        },
        {
          "client_id": "925850870185-et06nlaeecpl66hui3sk1vvg80ocu3ao.apps.googleusercontent.com",
          "client_type": 3
        }
      ],
      "api_key": [
        {
          "current_key": "AIzaSyBzYxV_5OGg1YDoUISbyiU3TVuMvBiKGP0"
        }
      ],
      "services": {
        "appinvite_service": {
          "other_platform_oauth_client": [
            {
              "client_id": "925850870185-4al1vch4aln9ca31t9533gkus8d3nio1.apps.googleusercontent.com",
              "client_type": 3
            },
            {
              "client_id": "925850870185-0171qd9t9lhbl9vjjo9bpn93k99qakj6.apps.googleusercontent.com",
              "client_type": 2,
              "ios_info": {
                "bundle_id": "com.techathalon.BallsHit"
              }
            }
          ]
        }
      }
    },
    {
      "client_info": {
        "mobilesdk_app_id": "1:925850870185:android:77f8829eece0964ea924b8",
        "android_client_info": {
          "package_name": "techathalon.com.smartcontactmanager"
        }
      },
      "oauth_client": [
        {
          "client_id": "925850870185-gigpckm59umiikqetbmq74o48mh7cqhj.apps.googleusercontent.com",
          "client_type": 1,
          "android_info": {
            "package_name": "techathalon.com.smartcontactmanager",
            "certificate_hash": "ba2a8aca9ea85273a71866ab257d009fbb4f2612"
          }
        },
        {
          "client_id": "925850870185-ja8nv8kijqr744b522tlfa74g91aq294.apps.googleusercontent.com",
          "client_type": 1,
          "android_info": {
            "package_name": "techathalon.com.smartcontactmanager",
            "certificate_hash": "8cb09946fff6e34b4132ea116c6dfdcda9b199c3"
          }
        },
        {
          "client_id": "925850870185-et06nlaeecpl66hui3sk1vvg80ocu3ao.apps.googleusercontent.com",
          "client_type": 3
        }
      ],
      "api_key": [
        {
          "current_key": "AIzaSyBzYxV_5OGg1YDoUISbyiU3TVuMvBiKGP0"
        }
      ],
      "services": {
        "appinvite_service": {
          "other_platform_oauth_client": [
            {
              "client_id": "925850870185-4al1vch4aln9ca31t9533gkus8d3nio1.apps.googleusercontent.com",
              "client_type": 3
            },
            {
              "client_id": "925850870185-0171qd9t9lhbl9vjjo9bpn93k99qakj6.apps.googleusercontent.com",
              "client_type": 2,
              "ios_info": {
                "bundle_id": "com.techathalon.BallsHit"
              }
            }
          ]
        }
      }
    }
  ],
  "configuration_version": "1"
}